%YAML 1.1
%TAG !u! tag:unity3d.com,2011:
--- !u!74 &7400000
AnimationClip:
  m_ObjectHideFlags: 0
  m_PrefabParentObject: {fileID: 0}
  m_PrefabInternal: {fileID: 0}
  m_Name: animation_carryCup01
  serializedVersion: 3
  m_AnimationType: 1
  m_Compressed: 0
  m_RotationCurves:
  - curve:
      serializedVersion: 2
      m_Curve:
      - time: 0
        value: {x: 0, y: 0, z: 0, w: 1}
        inSlope: {x: 0, y: 0, z: 0, w: 0}
        outSlope: {x: 0, y: 0, z: 0, w: 0}
        tangentMode: -559038737
      - time: .833333194
        value: {x: 0, y: 0, z: 0, w: 1}
        inSlope: {x: 0, y: 0, z: 0, w: 0}
        outSlope: {x: 0, y: 0, z: 0, w: 0}
        tangentMode: -559038737
      - time: 1.66666579
        value: {x: 0, y: 0, z: 0, w: 1}
        inSlope: {x: 0, y: 0, z: 0, w: 0}
        outSlope: {x: 0, y: 0, z: 0, w: 0}
        tangentMode: -559038737
      - time: 2.49999833
        value: {x: 0, y: 0, z: 0, w: 1}
        inSlope: {x: 0, y: 0, z: 0, w: 0}
        outSlope: {x: 0, y: 0, z: 0, w: 0}
        tangentMode: -559038737
      - time: 3.33333087
        value: {x: 0, y: 0, z: 0, w: 1}
        inSlope: {x: 0, y: 0, z: 0, w: 0}
        outSlope: {x: 0, y: 0, z: 0, w: 0}
        tangentMode: -559038737
      - time: 4.14999866
        value: {x: 0, y: 0, z: 0, w: 1}
        inSlope: {x: 0, y: 0, z: 0, w: 0}
        outSlope: {x: 0, y: 0, z: 0, w: 0}
        tangentMode: -559038737
      - time: 4.96667624
        value: {x: 0, y: 0, z: 0, w: 1}
        inSlope: {x: 0, y: 0, z: 0, w: 0}
        outSlope: {x: 0, y: 0, z: 0, w: 0}
        tangentMode: -559038737
      - time: 5.78335381
        value: {x: 0, y: 0, z: 0, w: 1}
        inSlope: {x: 0, y: 0, z: 0, w: 0}
        outSlope: {x: 0, y: 0, z: 0, w: 0}
        tangentMode: -559038737
      - time: 6.60003138
        value: {x: 0, y: 0, z: 0, w: 1}
        inSlope: {x: 0, y: 0, z: 0, w: 0}
        outSlope: {x: 0, y: 0, z: 0, w: 0}
        tangentMode: -559038737
      - time: 7.41670895
        value: {x: 0, y: 0, z: 0, w: 1}
        inSlope: {x: 0, y: 0, z: 0, w: 0}
        outSlope: {x: 0, y: 0, z: 0, w: 0}
        tangentMode: -559038737
      - time: 8.23337936
        value: {x: 0, y: 0, z: 0, w: 1}
        inSlope: {x: 0, y: 0, z: 0, w: 0}
        outSlope: {x: 0, y: 0, z: 0, w: 0}
        tangentMode: -559038737
      - time: 9.06669998
        value: {x: 0, y: 0, z: 0, w: 1}
        inSlope: {x: 0, y: 0, z: 0, w: 0}
        outSlope: {x: 0, y: 0, z: 0, w: 0}
        tangentMode: -559038737
      - time: 9.9000206
        value: {x: 0, y: 0, z: 0, w: 1}
        inSlope: {x: 0, y: 0, z: 0, w: 0}
        outSlope: {x: 0, y: 0, z: 0, w: 0}
        tangentMode: -559038737
      - time: 10.7333412
        value: {x: 0, y: 0, z: 0, w: 1}
        inSlope: {x: 0, y: 0, z: 0, w: 0}
        outSlope: {x: 0, y: 0, z: 0, w: 0}
        tangentMode: -559038737
      - time: 11.4333305
        value: {x: -.00315098674, y: 0, z: 0, w: .999995053}
        inSlope: {x: -.0624478757, y: 0, z: 0, w: -.000202062831}
        outSlope: {x: -.0624478757, y: 0, z: 0, w: -.000202062831}
        tangentMode: -559038737
      - time: 12.2666512
        value: {x: -.231876478, y: 0, z: 0, w: .97274524}
        inSlope: {x: -.440500975, y: 0, z: 0, w: -.10502439}
        outSlope: {x: -.440500975, y: 0, z: 0, w: -.10502439}
        tangentMode: -559038737
      - time: 13.0999718
        value: {x: -.639133036, y: 0, z: 0, w: .769096196}
        inSlope: {x: -.469812155, y: 0, z: 0, w: -.390428305}
        outSlope: {x: -.469812155, y: 0, z: 0, w: -.390428305}
        tangentMode: -559038737
      - time: 13.8999596
        value: {x: -.920589983, y: 0, z: 0, w: .390530467}
        inSlope: {x: -.212444931, y: 0, z: 0, w: -.500751913}
        outSlope: {x: -.212444931, y: 0, z: 0, w: -.500751913}
        tangentMode: -559038737
      - time: 14.7332802
        value: {x: -.998449504, y: 0, z: 0, w: .0556646772}
        inSlope: {x: -.0137384841, y: 0, z: 0, w: -.24614349}
        outSlope: {x: -.0137384841, y: 0, z: 0, w: -.24614349}
        tangentMode: -559038737
      - time: 15.5666008
        value: {x: -.999923408, y: 0, z: 0, w: .0123772603}
        inSlope: {x: .000754606328, y: 0, z: 0, w: .0607786663}
        outSlope: {x: .000754606328, y: 0, z: 0, w: .0607786663}
        tangentMode: -559038737
      - time: 16.3999214
        value: {x: -.994080603, y: 0, z: 0, w: .108645327}
        inSlope: {x: .0180300847, y: 0, z: 0, w: .164951891}
        outSlope: {x: .0180300847, y: 0, z: 0, w: .164951891}
        tangentMode: -559038737
      - time: 17.233242
        value: {x: -.960815191, y: 0, z: 0, w: .277189761}
        inSlope: {x: .0670955926, y: 0, z: 0, w: .232560903}
        outSlope: {x: .0670955926, y: 0, z: 0, w: .232560903}
        tangentMode: -559038737
      - time: 18.0665627
        value: {x: -.875563443, y: 0, z: 0, w: .483103126}
        inSlope: {x: .139668331, y: 0, z: 0, w: .253127515}
        outSlope: {x: .139668331, y: 0, z: 0, w: .253127515}
        tangentMode: -559038737
      - time: 18.8998833
        value: {x: -.728520513, y: 0, z: 0, w: .685023963}
        inSlope: {x: .210383177, y: 0, z: 0, w: .223740786}
        outSlope: {x: .210383177, y: 0, z: 0, w: .223740786}
        tangentMode: -559038737
      - time: 19.7332039
        value: {x: -.533565223, y: 0, z: 0, w: .845758915}
        inSlope: {x: .250414848, y: 0, z: 0, w: .157980949}
        outSlope: {x: .250414848, y: 0, z: 0, w: .157980949}
        tangentMode: -559038737
      - time: 20.5665245
        value: {x: -.324760765, y: 0, z: 0, w: .945796192}
        inSlope: {x: .242125809, y: 0, z: 0, w: .0831425935}
        outSlope: {x: .242125809, y: 0, z: 0, w: .0831425935}
        tangentMode: -559038737
      - time: 21.3998451
        value: {x: -.14371112, y: 0, z: 0, w: .989619672}
        inSlope: {x: .18493399, y: 0, z: 0, w: .0268582627}
        outSlope: {x: .18493399, y: 0, z: 0, w: .0268582627}
        tangentMode: -559038737
      - time: 22.2331657
        value: {x: -.0273677334, y: 0, z: 0, w: .999625444}
        inSlope: {x: .0886655152, y: 0, z: 0, w: .00242833025}
        outSlope: {x: .0886655152, y: 0, z: 0, w: .00242833025}
        tangentMode: -559038737
      - time: 22.8333321
        value: {x: 0, y: 0, z: 0, w: 1}
        inSlope: {x: .00134734774, y: 0, z: 0, w: 0}
        outSlope: {x: .00134734774, y: 0, z: 0, w: 0}
        tangentMode: -559038737
      m_PreInfinity: 2
      m_PostInfinity: 2
    path: 
  m_CompressedRotationCurves: []
  m_PositionCurves:
  - curve:
      serializedVersion: 2
      m_Curve:
      - time: 0
        value: {x: 7.30000019, y: -.839999974, z: 22.5366478}
        inSlope: {x: 0, y: 0, z: 0}
        outSlope: {x: 0, y: 0, z: 0}
        tangentMode: 207
      - time: 3.66666675
        value: {x: 7.30000019, y: 13.144248, z: 22.5366478}
        inSlope: {x: 0, y: 6.25588417, z: 0}
        outSlope: {x: 0, y: 6.25588417, z: 0}
        tangentMode: -559038737
      - time: 7.5
        value: {x: 5.30000019, y: 35.665844, z: 23.3314571}
        inSlope: {x: 0, y: 3.99507546, z: .0858306885}
        outSlope: {x: 0, y: 3.99507546, z: .0858306885}
        tangentMode: -559038737
      - time: 11.333333
        value: {x: 5.30000019, y: 47.6362152, z: 23.9483089}
        inSlope: {x: 0, y: 0, z: 0}
        outSlope: {x: 0, y: 0, z: 0}
        tangentMode: -559038737
      - time: 15.166667
        value: {x: 5.30000019, y: 48.7935791, z: 21.4233685}
        inSlope: {x: 0, y: 0, z: 0}
        outSlope: {x: 0, y: 0, z: 0}
        tangentMode: -559038737
      - time: 19
        value: {x: 13.6999998, y: 47.6362228, z: 20.8438663}
        inSlope: {x: 0, y: 0, z: 0}
        outSlope: {x: 0, y: 0, z: 0}
        tangentMode: 95044640
      - time: 22.833334
        value: {x: 13.6999998, y: 31.3199997, z: 20.8432102}
        inSlope: {x: 0, y: -4.13170481, z: 0}
        outSlope: {x: 0, y: -4.13170481, z: 0}
        tangentMode: -559038737
      - time: 30.5
        value: {x: 13.6999998, y: .59962976, z: 22.5366497}
        inSlope: {x: 0, y: -2.19127989, z: 0}
        outSlope: {x: 0, y: -2.19127989, z: 0}
        tangentMode: -559038737
      - time: 34.3333321
        value: {x: 7.30000019, y: -.839998543, z: 22.5366497}
        inSlope: {x: 0, y: -.375551879, z: 0}
        outSlope: {x: 0, y: -.375551879, z: 0}
        tangentMode: -559038737
      - time: 34.3333359
        value: {x: 7.30000019, y: -.839999974, z: 22.5366497}
        inSlope: {x: 9.55333053e-06, y: -.375555545, z: 0}
        outSlope: {x: 9.55333053e-06, y: -.375555545, z: 0}
        tangentMode: 0
      m_PreInfinity: 2
      m_PostInfinity: 2
    path: 
  m_ScaleCurves: []
  m_FloatCurves: []
  m_SampleRate: 60
  m_WrapMode: 2
  m_Bounds:
    m_Center: {x: 0, y: 0, z: 0}
    m_Extent: {x: 0, y: 0, z: 0}
  m_MuscleClipInfo:
    m_StartTime: 0
    m_StopTime: 1
    m_OrientationOffsetY: 0
    m_Level: 0
    m_CycleOffset: 0
    m_LoopBlend: 0
    m_LoopBlendOrientation: 0
    m_LoopBlendPositionY: 0
    m_LoopBlendPositionXZ: 0
    m_KeepOriginalOrientation: 0
    m_KeepOriginalPositionY: 1
    m_KeepOriginalPositionXZ: 0
    m_HeightFromFeet: 0
    m_Mirror: 0
    m_KeepAdditionalBonesAnimation: 1
  m_EditorCurves:
  - curve:
      serializedVersion: 2
      m_Curve:
      - time: 0
        value: 7.30000019
        inSlope: 0
        outSlope: 0
        tangentMode: 0
      - time: 3.66666675
        value: 7.30000019
        inSlope: 0
        outSlope: 0
        tangentMode: 0
      - time: 7.5
        value: 5.30000019
        inSlope: 0
        outSlope: 0
        tangentMode: 0
      - time: 11.333333
        value: 5.30000019
        inSlope: 0
        outSlope: 0
        tangentMode: 0
      - time: 15.166667
        value: 5.30000019
        inSlope: 0
        outSlope: 0
        tangentMode: 0
      - time: 19
        value: 13.6999998
        inSlope: 0
        outSlope: 0
        tangentMode: 0
      - time: 22.833334
        value: 13.6999998
        inSlope: 0
        outSlope: 0
        tangentMode: 0
      - time: 30.5
        value: 13.6999998
        inSlope: 0
        outSlope: 0
        tangentMode: 0
      - time: 34.3333321
        value: 7.30000019
        inSlope: 0
        outSlope: 0
        tangentMode: 0
      m_PreInfinity: 2
      m_PostInfinity: 2
    attribute: m_LocalPosition.x
    path: 
    classID: 4
    script: {fileID: 0}
  - curve:
      serializedVersion: 2
      m_Curve:
      - time: 0
        value: -.839999974
        inSlope: 0
        outSlope: 0
        tangentMode: 0
      - time: 7.5
        value: 35.665844
        inSlope: 3.99507546
        outSlope: 3.99507546
        tangentMode: 10
      - time: 11.333334
        value: 47.6362152
        inSlope: 0
        outSlope: 0
        tangentMode: 0
      - time: 15.166666
        value: 48.7935791
        inSlope: 0
        outSlope: 0
        tangentMode: 0
      - time: 19
        value: 47.6362228
        inSlope: 0
        outSlope: 0
        tangentMode: 0
      - time: 22.833334
        value: 31.3199997
        inSlope: -4.13170481
        outSlope: -4.13170481
        tangentMode: 10
      - time: 30.5000019
        value: .59962976
        inSlope: -2.19127989
        outSlope: -2.19127989
        tangentMode: 10
      - time: 34.3333359
        value: -.839999974
        inSlope: -.375555545
        outSlope: -.375555545
        tangentMode: 10
      m_PreInfinity: 2
      m_PostInfinity: 2
    attribute: m_LocalPosition.y
    path: 
    classID: 4
    script: {fileID: 0}
  - curve:
      serializedVersion: 2
      m_Curve:
      - time: 0
        value: 22.5366478
        inSlope: 0
        outSlope: 0
        tangentMode: 10
      - time: 3.66666722
        value: 22.5366478
        inSlope: 0
        outSlope: 0
        tangentMode: 0
      - time: 7.5
        value: 23.3314571
        inSlope: .0858306885
        outSlope: .0858306885
        tangentMode: 0
      - time: 11.333334
        value: 23.9483089
        inSlope: 0
        outSlope: 0
        tangentMode: 0
      - time: 15.166666
        value: 21.4233685
        inSlope: 0
        outSlope: 0
        tangentMode: 0
      - time: 19
        value: 20.8438663
        inSlope: 0
        outSlope: 0
        tangentMode: 0
      - time: 22.833334
        value: 20.8432102
        inSlope: 0
        outSlope: 0
        tangentMode: 0
      - time: 30.5000019
        value: 22.5366497
        inSlope: 0
        outSlope: 0
        tangentMode: 0
      m_PreInfinity: 2
      m_PostInfinity: 2
    attribute: m_LocalPosition.z
    path: 
    classID: 4
    script: {fileID: 0}
  - curve:
      serializedVersion: 2
      m_Curve:
      - time: 0
        value: 0
        inSlope: 0
        outSlope: 0
        tangentMode: 0
      - time: .833333194
        value: 0
        inSlope: 0
        outSlope: 0
        tangentMode: 0
      - time: 1.66666579
        value: 0
        inSlope: 0
        outSlope: 0
        tangentMode: 0
      - time: 2.49999833
        value: 0
        inSlope: 0
        outSlope: 0
        tangentMode: 0
      - time: 3.33333087
        value: 0
        inSlope: 0
        outSlope: 0
        tangentMode: 0
      - time: 4.14999866
        value: 0
        inSlope: 0
        outSlope: 0
        tangentMode: 0
      - time: 4.96667624
        value: 0
        inSlope: 0
        outSlope: 0
        tangentMode: 0
      - time: 5.78335381
        value: 0
        inSlope: 0
        outSlope: 0
        tangentMode: 0
      - time: 6.60003138
        value: 0
        inSlope: 0
        outSlope: 0
        tangentMode: 0
      - time: 7.41670895
        value: 0
        inSlope: 0
        outSlope: 0
        tangentMode: 0
      - time: 8.23337936
        value: 0
        inSlope: 0
        outSlope: 0
        tangentMode: 0
      - time: 9.06669998
        value: 0
        inSlope: 0
        outSlope: 0
        tangentMode: 0
      - time: 9.9000206
        value: 0
        inSlope: 0
        outSlope: 0
        tangentMode: 0
      - time: 10.7333412
        value: 0
        inSlope: 0
        outSlope: 0
        tangentMode: 0
      - time: 11.4333305
        value: -.00315098674
        inSlope: -.0624478757
        outSlope: -.0624478757
        tangentMode: 0
      - time: 12.2666512
        value: -.231876478
        inSlope: -.440500975
        outSlope: -.440500975
        tangentMode: 0
      - time: 13.0999718
        value: -.639133036
        inSlope: -.469812155
        outSlope: -.469812155
        tangentMode: 0
      - time: 13.8999596
        value: -.920589983
        inSlope: -.212444931
        outSlope: -.212444931
        tangentMode: 0
      - time: 14.7332802
        value: -.998449504
        inSlope: -.0137384841
        outSlope: -.0137384841
        tangentMode: 0
      - time: 15.5666008
        value: -.999923408
        inSlope: .000754606328
        outSlope: .000754606328
        tangentMode: 0
      - time: 16.3999214
        value: -.994080603
        inSlope: .0180300847
        outSlope: .0180300847
        tangentMode: 0
      - time: 17.233242
        value: -.960815191
        inSlope: .0670955926
        outSlope: .0670955926
        tangentMode: 0
      - time: 18.0665627
        value: -.875563443
        inSlope: .139668331
        outSlope: .139668331
        tangentMode: 0
      - time: 18.8998833
        value: -.728520513
        inSlope: .210383177
        outSlope: .210383177
        tangentMode: 0
      - time: 19.7332039
        value: -.533565223
        inSlope: .250414848
        outSlope: .250414848
        tangentMode: 0
      - time: 20.5665245
        value: -.324760765
        inSlope: .242125809
        outSlope: .242125809
        tangentMode: 0
      - time: 21.3998451
        value: -.14371112
        inSlope: .18493399
        outSlope: .18493399
        tangentMode: 0
      - time: 22.2331657
        value: -.0273677334
        inSlope: .0886655152
        outSlope: .0886655152
        tangentMode: 0
      - time: 22.8333321
        value: 0
        inSlope: .00134734774
        outSlope: .00134734774
        tangentMode: 0
      m_PreInfinity: 2
      m_PostInfinity: 2
    attribute: m_LocalRotation.x
    path: 
    classID: 4
    script: {fileID: 0}
  - curve:
      serializedVersion: 2
      m_Curve:
      - time: 0
        value: 0
        inSlope: 0
        outSlope: 0
        tangentMode: 0
      - time: .833333194
        value: 0
        inSlope: 0
        outSlope: 0
        tangentMode: 0
      - time: 1.66666579
        value: 0
        inSlope: 0
        outSlope: 0
        tangentMode: 0
      - time: 2.49999833
        value: 0
        inSlope: 0
        outSlope: 0
        tangentMode: 0
      - time: 3.33333087
        value: 0
        inSlope: 0
        outSlope: 0
        tangentMode: 0
      - time: 4.14999866
        value: 0
        inSlope: 0
        outSlope: 0
        tangentMode: 0
      - time: 4.96667624
        value: 0
        inSlope: 0
        outSlope: 0
        tangentMode: 0
      - time: 5.78335381
        value: 0
        inSlope: 0
        outSlope: 0
        tangentMode: 0
      - time: 6.60003138
        value: 0
        inSlope: 0
        outSlope: 0
        tangentMode: 0
      - time: 7.41670895
        value: 0
        inSlope: 0
        outSlope: 0
        tangentMode: 0
      - time: 8.23337936
        value: 0
        inSlope: 0
        outSlope: 0
        tangentMode: 0
      - time: 9.06669998
        value: 0
        inSlope: 0
        outSlope: 0
        tangentMode: 0
      - time: 9.9000206
        value: 0
        inSlope: 0
        outSlope: 0
        tangentMode: 0
      - time: 10.7333412
        value: 0
        inSlope: 0
        outSlope: 0
        tangentMode: 0
      - time: 11.4333305
        value: 0
        inSlope: 0
        outSlope: 0
        tangentMode: 0
      - time: 12.2666512
        value: 0
        inSlope: 0
        outSlope: 0
        tangentMode: 0
      - time: 13.0999718
        value: 0
        inSlope: 0
        outSlope: 0
        tangentMode: 0
      - time: 13.8999596
        value: 0
        inSlope: 0
        outSlope: 0
        tangentMode: 0
      - time: 14.7332802
        value: 0
        inSlope: 0
        outSlope: 0
        tangentMode: 0
      - time: 15.5666008
        value: 0
        inSlope: 0
        outSlope: 0
        tangentMode: 0
      - time: 16.3999214
        value: 0
        inSlope: 0
        outSlope: 0
        tangentMode: 0
      - time: 17.233242
        value: 0
        inSlope: 0
        outSlope: 0
        tangentMode: 0
      - time: 18.0665627
        value: 0
        inSlope: 0
        outSlope: 0
        tangentMode: 0
      - time: 18.8998833
        value: 0
        inSlope: 0
        outSlope: 0
        tangentMode: 0
      - time: 19.7332039
        value: 0
        inSlope: 0
        outSlope: 0
        tangentMode: 0
      - time: 20.5665245
        value: 0
        inSlope: 0
        outSlope: 0
        tangentMode: 0
      - time: 21.3998451
        value: 0
        inSlope: 0
        outSlope: 0
        tangentMode: 0
      - time: 22.2331657
        value: 0
        inSlope: 0
        outSlope: 0
        tangentMode: 0
      - time: 22.8333321
        value: 0
        inSlope: 0
        outSlope: 0
        tangentMode: 0
      m_PreInfinity: 2
      m_PostInfinity: 2
    attribute: m_LocalRotation.y
    path: 
    classID: 4
    script: {fileID: 0}
  - curve:
      serializedVersion: 2
      m_Curve:
      - time: 0
        value: 0
        inSlope: 0
        outSlope: 0
        tangentMode: 0
      - time: .833333194
        value: 0
        inSlope: 0
        outSlope: 0
        tangentMode: 0
      - time: 1.66666579
        value: 0
        inSlope: 0
        outSlope: 0
        tangentMode: 0
      - time: 2.49999833
        value: 0
        inSlope: 0
        outSlope: 0
        tangentMode: 0
      - time: 3.33333087
        value: 0
        inSlope: 0
        outSlope: 0
        tangentMode: 0
      - time: 4.14999866
        value: 0
        inSlope: 0
        outSlope: 0
        tangentMode: 0
      - time: 4.96667624
        value: 0
        inSlope: 0
        outSlope: 0
        tangentMode: 0
      - time: 5.78335381
        value: 0
        inSlope: 0
        outSlope: 0
        tangentMode: 0
      - time: 6.60003138
        value: 0
        inSlope: 0
        outSlope: 0
        tangentMode: 0
      - time: 7.41670895
        value: 0
        inSlope: 0
        outSlope: 0
        tangentMode: 0
      - time: 8.23337936
        value: 0
        inSlope: 0
        outSlope: 0
        tangentMode: 0
      - time: 9.06669998
        value: 0
        inSlope: 0
        outSlope: 0
        tangentMode: 0
      - time: 9.9000206
        value: 0
        inSlope: 0
        outSlope: 0
        tangentMode: 0
      - time: 10.7333412
        value: 0
        inSlope: 0
        outSlope: 0
        tangentMode: 0
      - time: 11.4333305
        value: 0
        inSlope: 0
        outSlope: 0
        tangentMode: 0
      - time: 12.2666512
        value: 0
        inSlope: 0
        outSlope: 0
        tangentMode: 0
      - time: 13.0999718
        value: 0
        inSlope: 0
        outSlope: 0
        tangentMode: 0
      - time: 13.8999596
        value: 0
        inSlope: 0
        outSlope: 0
        tangentMode: 0
      - time: 14.7332802
        value: 0
        inSlope: 0
        outSlope: 0
        tangentMode: 0
      - time: 15.5666008
        value: 0
        inSlope: 0
        outSlope: 0
        tangentMode: 0
      - time: 16.3999214
        value: 0
        inSlope: 0
        outSlope: 0
        tangentMode: 0
      - time: 17.233242
        value: 0
        inSlope: 0
        outSlope: 0
        tangentMode: 0
      - time: 18.0665627
        value: 0
        inSlope: 0
        outSlope: 0
        tangentMode: 0
      - time: 18.8998833
        value: 0
        inSlope: 0
        outSlope: 0
        tangentMode: 0
      - time: 19.7332039
        value: 0
        inSlope: 0
        outSlope: 0
        tangentMode: 0
      - time: 20.5665245
        value: 0
        inSlope: 0
        outSlope: 0
        tangentMode: 0
      - time: 21.3998451
        value: 0
        inSlope: 0
        outSlope: 0
        tangentMode: 0
      - time: 22.2331657
        value: 0
        inSlope: 0
        outSlope: 0
        tangentMode: 0
      - time: 22.8333321
        value: 0
        inSlope: 0
        outSlope: 0
        tangentMode: 0
      m_PreInfinity: 2
      m_PostInfinity: 2
    attribute: m_LocalRotation.z
    path: 
    classID: 4
    script: {fileID: 0}
  - curve:
      serializedVersion: 2
      m_Curve:
      - time: 0
        value: 1
        inSlope: 0
        outSlope: 0
        tangentMode: 0
      - time: .833333194
        value: 1
        inSlope: 0
        outSlope: 0
        tangentMode: 0
      - time: 1.66666579
        value: 1
        inSlope: 0
        outSlope: 0
        tangentMode: 0
      - time: 2.49999833
        value: 1
        inSlope: 0
        outSlope: 0
        tangentMode: 0
      - time: 3.33333087
        value: 1
        inSlope: 0
        outSlope: 0
        tangentMode: 0
      - time: 4.14999866
        value: 1
        inSlope: 0
        outSlope: 0
        tangentMode: 0
      - time: 4.96667624
        value: 1
        inSlope: 0
        outSlope: 0
        tangentMode: 0
      - time: 5.78335381
        value: 1
        inSlope: 0
        outSlope: 0
        tangentMode: 0
      - time: 6.60003138
        value: 1
        inSlope: 0
        outSlope: 0
        tangentMode: 0
      - time: 7.41670895
        value: 1
        inSlope: 0
        outSlope: 0
        tangentMode: 0
      - time: 8.23337936
        value: 1
        inSlope: 0
        outSlope: 0
        tangentMode: 0
      - time: 9.06669998
        value: 1
        inSlope: 0
        outSlope: 0
        tangentMode: 0
      - time: 9.9000206
        value: 1
        inSlope: 0
        outSlope: 0
        tangentMode: 0
      - time: 10.7333412
        value: 1
        inSlope: 0
        outSlope: 0
        tangentMode: 0
      - time: 11.4333305
        value: .999995053
        inSlope: -.000202062831
        outSlope: -.000202062831
        tangentMode: 0
      - time: 12.2666512
        value: .97274524
        inSlope: -.10502439
        outSlope: -.10502439
        tangentMode: 0
      - time: 13.0999718
        value: .769096196
        inSlope: -.390428305
        outSlope: -.390428305
        tangentMode: 0
      - time: 13.8999596
        value: .390530467
        inSlope: -.500751913
        outSlope: -.500751913
        tangentMode: 0
      - time: 14.7332802
        value: .0556646772
        inSlope: -.24614349
        outSlope: -.24614349
        tangentMode: 0
      - time: 15.5666008
        value: .0123772603
        inSlope: .0607786663
        outSlope: .0607786663
        tangentMode: 0
      - time: 16.3999214
        value: .108645327
        inSlope: .164951891
        outSlope: .164951891
        tangentMode: 0
      - time: 17.233242
        value: .277189761
        inSlope: .232560903
        outSlope: .232560903
        tangentMode: 0
      - time: 18.0665627
        value: .483103126
        inSlope: .253127515
        outSlope: .253127515
        tangentMode: 0
      - time: 18.8998833
        value: .685023963
        inSlope: .223740786
        outSlope: .223740786
        tangentMode: 0
      - time: 19.7332039
        value: .845758915
        inSlope: .157980949
        outSlope: .157980949
        tangentMode: 0
      - time: 20.5665245
        value: .945796192
        inSlope: .0831425935
        outSlope: .0831425935
        tangentMode: 0
      - time: 21.3998451
        value: .989619672
        inSlope: .0268582627
        outSlope: .0268582627
        tangentMode: 0
      - time: 22.2331657
        value: .999625444
        inSlope: .00242833025
        outSlope: .00242833025
        tangentMode: 0
      - time: 22.8333321
        value: 1
        inSlope: 0
        outSlope: 0
        tangentMode: 0
      m_PreInfinity: 2
      m_PostInfinity: 2
    attribute: m_LocalRotation.w
    path: 
    classID: 4
    script: {fileID: 0}
  m_EulerEditorCurves:
  - curve:
      serializedVersion: 2
      m_Curve:
      - time: 0
        value: 0
        inSlope: 0
        outSlope: 0
        tangentMode: 0
      - time: 11.333333
        value: 0
        inSlope: 0
        outSlope: 0
        tangentMode: 0
      - time: 15.166666
        value: -180
        inSlope: 0
        outSlope: 0
        tangentMode: 0
      - time: 22.8333321
        value: 0
        inSlope: 0
        outSlope: 0
        tangentMode: 0
      m_PreInfinity: 2
      m_PostInfinity: 2
    attribute: localEulerAnglesBaked.x
    path: 
    classID: 4
    script: {fileID: 0}
  - curve:
      serializedVersion: 2
      m_Curve:
      - time: 0
        value: 0
        inSlope: 0
        outSlope: 0
        tangentMode: 0
      - time: 11.333334
        value: 0
        inSlope: 0
        outSlope: 0
        tangentMode: 0
      - time: 22.8333321
        value: 0
        inSlope: 0
        outSlope: 0
        tangentMode: 0
      m_PreInfinity: 2
      m_PostInfinity: 2
    attribute: localEulerAnglesBaked.y
    path: 
    classID: 4
    script: {fileID: 0}
  - curve:
      serializedVersion: 2
      m_Curve:
      - time: 0
        value: 0
        inSlope: 0
        outSlope: 0
        tangentMode: 0
      - time: 11.333334
        value: 0
        inSlope: 0
        outSlope: 0
        tangentMode: 0
      - time: 22.8333321
        value: 0
        inSlope: 0
        outSlope: 0
        tangentMode: 0
      m_PreInfinity: 2
      m_PostInfinity: 2
    attribute: localEulerAnglesBaked.z
    path: 
    classID: 4
    script: {fileID: 0}
  m_Events: []
