%YAML 1.1
%TAG !u! tag:unity3d.com,2011:
--- !u!74 &7400000
AnimationClip:
  m_ObjectHideFlags: 0
  m_PrefabParentObject: {fileID: 0}
  m_PrefabInternal: {fileID: 0}
  m_Name: animation_carryCup05
  serializedVersion: 3
  m_AnimationType: 1
  m_Compressed: 0
  m_RotationCurves:
  - curve:
      serializedVersion: 2
      m_Curve:
      - time: 15.166666
        value: {x: 0, y: 0, z: 0, w: 1}
        inSlope: {x: 0, y: 0, z: 0, w: 0}
        outSlope: {x: 0, y: 0, z: 0, w: 0}
        tangentMode: -559038737
      - time: 15.9999866
        value: {x: 0, y: 0, z: 0, w: 1}
        inSlope: {x: 0, y: 0, z: 0, w: 0}
        outSlope: {x: 0, y: 0, z: 0, w: 0}
        tangentMode: -559038737
      - time: 16.8333073
        value: {x: 0, y: 0, z: 0, w: 1}
        inSlope: {x: 0, y: 0, z: 0, w: 0}
        outSlope: {x: 0, y: 0, z: 0, w: 0}
        tangentMode: -559038737
      - time: 17.6666279
        value: {x: 0, y: 0, z: 0, w: 1}
        inSlope: {x: 0, y: 0, z: 0, w: 0}
        outSlope: {x: 0, y: 0, z: 0, w: 0}
        tangentMode: -559038737
      - time: 18.4999485
        value: {x: 0, y: 0, z: 0, w: 1}
        inSlope: {x: 0, y: 0, z: 0, w: 0}
        outSlope: {x: 0, y: 0, z: 0, w: 0}
        tangentMode: -559038737
      - time: 19.3332691
        value: {x: 0, y: 0, z: 0, w: 1}
        inSlope: {x: 0, y: 0, z: 0, w: 0}
        outSlope: {x: 0, y: 0, z: 0, w: 0}
        tangentMode: -559038737
      - time: 20.1665897
        value: {x: 0, y: 0, z: 0, w: 1}
        inSlope: {x: 0, y: 0, z: 0, w: 0}
        outSlope: {x: 0, y: 0, z: 0, w: 0}
        tangentMode: -559038737
      - time: 20.9999104
        value: {x: 0, y: 0, z: 0, w: 1}
        inSlope: {x: 0, y: 0, z: 0, w: 0}
        outSlope: {x: 0, y: 0, z: 0, w: 0}
        tangentMode: -559038737
      - time: 21.833231
        value: {x: 0, y: 0, z: 0, w: 1}
        inSlope: {x: 0, y: 0, z: 0, w: 0}
        outSlope: {x: 0, y: 0, z: 0, w: 0}
        tangentMode: -559038737
      - time: 22.6665516
        value: {x: 0, y: 0, z: 0, w: 1}
        inSlope: {x: 0, y: 0, z: 0, w: 0}
        outSlope: {x: 0, y: 0, z: 0, w: 0}
        tangentMode: -559038737
      - time: 23.4998722
        value: {x: 0, y: 0, z: 0, w: 1}
        inSlope: {x: 0, y: 0, z: 0, w: 0}
        outSlope: {x: 0, y: 0, z: 0, w: 0}
        tangentMode: -559038737
      - time: 24.3331928
        value: {x: 0, y: 0, z: 0, w: 1}
        inSlope: {x: 0, y: 0, z: 0, w: 0}
        outSlope: {x: 0, y: 0, z: 0, w: 0}
        tangentMode: -559038737
      - time: 25.1665134
        value: {x: 0, y: 0, z: 0, w: 1}
        inSlope: {x: 0, y: 0, z: 0, w: 0}
        outSlope: {x: 0, y: 0, z: 0, w: 0}
        tangentMode: -559038737
      - time: 25.9998341
        value: {x: 0, y: 0, z: 0, w: 1}
        inSlope: {x: 0, y: 0, z: 0, w: 0}
        outSlope: {x: 0, y: 0, z: 0, w: 0}
        tangentMode: -559038737
      - time: 26.7498226
        value: {x: -.00218541757, y: 0, z: 0, w: .999997616}
        inSlope: {x: -.0521614589, y: 0, z: 0, w: -.000119807162}
        outSlope: {x: -.0521614589, y: 0, z: 0, w: -.000119807162}
        tangentMode: -559038737
      - time: 27.5831432
        value: {x: -.224495783, y: 0, z: 0, w: .974475086}
        inSlope: {x: -.435837001, y: 0, z: 0, w: -.100427017}
        outSlope: {x: -.435837001, y: 0, z: 0, w: -.100427017}
        tangentMode: -559038737
      - time: 28.4164639
        value: {x: -.631191611, y: 0, z: 0, w: .775626957}
        inSlope: {x: -.473109543, y: 0, z: 0, w: -.385013759}
        outSlope: {x: -.473109543, y: 0, z: 0, w: -.385013759}
        tangentMode: -559038737
      - time: 29.2164516
        value: {x: -.916961074, y: 0, z: 0, w: .398976684}
        inSlope: {x: -.218481779, y: 0, z: 0, w: -.502093077}
        outSlope: {x: -.218481779, y: 0, z: 0, w: -.502093077}
        tangentMode: -559038737
      - time: 30.0497723
        value: {x: -.998205543, y: 0, z: 0, w: .0598802529}
        inSlope: {x: -.0152780954, y: 0, z: 0, w: -.254383147}
        outSlope: {x: -.0152780954, y: 0, z: 0, w: -.254383147}
        tangentMode: -559038737
      - time: 30.8830929
        value: {x: -.999935329, y: 0, z: 0, w: .0113738272}
        inSlope: {x: .000665197964, y: 0, z: 0, w: .0583548062}
        outSlope: {x: .000665197964, y: 0, z: 0, w: .0583548062}
        tangentMode: -559038737
      - time: 31.7164135
        value: {x: -.994378746, y: 0, z: 0, w: .105881765}
        inSlope: {x: .0173774026, y: 0, z: 0, w: .163177133}
        outSlope: {x: .0173774026, y: 0, z: 0, w: .163177133}
        tangentMode: -559038737
      - time: 32.549736
        value: {x: -.961934209, y: 0, z: 0, w: .273281038}
        inSlope: {x: .0658081025, y: 0, z: 0, w: .231627494}
        outSlope: {x: .0658081025, y: 0, z: 0, w: .231627494}
        tangentMode: -559038737
      - time: 33.3830566
        value: {x: -.877902508, y: 0, z: 0, w: .478839427}
        inSlope: {x: .138117999, y: 0, z: 0, w: .253222287}
        outSlope: {x: .138117999, y: 0, z: 0, w: .253222287}
        tangentMode: -559038737
      - time: 34.2163773
        value: {x: -.73205328, y: 0, z: 0, w: .681247413}
        inSlope: {x: .209170789, y: 0, z: 0, w: .224768966}
        outSlope: {x: .209170789, y: 0, z: 0, w: .224768966}
        tangentMode: -559038737
      - time: 35.0496979
        value: {x: -.537779331, y: 0, z: 0, w: .843085647}
        inSlope: {x: .250053644, y: 0, z: 0, w: .159502685}
        outSlope: {x: .250053644, y: 0, z: 0, w: .159502685}
        tangentMode: -559038737
      - time: 35.8830185
        value: {x: -.328843862, y: 0, z: 0, w: .944384277}
        inSlope: {x: .242799938, y: 0, z: 0, w: .0845481008}
        outSlope: {x: .242799938, y: 0, z: 0, w: .0845481008}
        tangentMode: -559038737
      - time: 36.7163391
        value: {x: -.146838725, y: 0, z: 0, w: .989160419}
        inSlope: {x: .186514273, y: 0, z: 0, w: .0276897587}
        outSlope: {x: .186514273, y: 0, z: 0, w: .0276897587}
        tangentMode: -559038737
      - time: 37.5496597
        value: {x: -.0288800951, y: 0, z: 0, w: .999582887}
        inSlope: {x: .0909321308, y: 0, z: 0, w: .00262860488}
        outSlope: {x: .0909321308, y: 0, z: 0, w: .00262860488}
        tangentMode: -559038737
      - time: 38.1666641
        value: {x: 0, y: 0, z: 0, w: 1}
        inSlope: {x: .00137777836, y: 0, z: 0, w: 0}
        outSlope: {x: .00137777836, y: 0, z: 0, w: 0}
        tangentMode: -559038737
      m_PreInfinity: 2
      m_PostInfinity: 2
    path: 
  m_CompressedRotationCurves: []
  m_PositionCurves:
  - curve:
      serializedVersion: 2
      m_Curve:
      - time: 15.166666
        value: {x: 7.30000019, y: -.839999974, z: 22.5366478}
        inSlope: {x: 0, y: 0, z: 0}
        outSlope: {x: 0, y: 0, z: 0}
        tangentMode: -559038737
      - time: 19
        value: {x: 7.30000019, y: 13.6350107, z: 22.5366478}
        inSlope: {x: 0, y: 6.15690422, z: 0}
        outSlope: {x: 0, y: 6.15690422, z: 0}
        tangentMode: -559038737
      - time: 22.833334
        value: {x: 5.30000019, y: 35.665844, z: 23.3314571}
        inSlope: {x: 0, y: 3.942168, z: .0858306885}
        outSlope: {x: 0, y: 3.942168, z: .0858306885}
        tangentMode: -559038737
      - time: 26.6666679
        value: {x: 5.30000019, y: 47.6362152, z: 23.9483089}
        inSlope: {x: 0, y: 0, z: 0}
        outSlope: {x: 0, y: 0, z: 0}
        tangentMode: -559038737
      - time: 30.5000019
        value: {x: 5.30000019, y: 48.7935791, z: 21.4233685}
        inSlope: {x: 0, y: 0, z: 0}
        outSlope: {x: 0, y: 0, z: 0}
        tangentMode: -559038737
      - time: 34.3333321
        value: {x: 13.6999998, y: 47.6362228, z: 20.8438663}
        inSlope: {x: 0, y: -1.83556892e-06, z: -9.19091235e-07}
        outSlope: {x: 0, y: -1.83556892e-06, z: -9.19091235e-07}
        tangentMode: -559038737
      - time: 34.3333359
        value: {x: 13.6999998, y: 47.6362228, z: 20.8438663}
        inSlope: {x: 0, y: 0, z: 0}
        outSlope: {x: 0, y: 0, z: 0}
        tangentMode: 0
      - time: 38.1666641
        value: {x: 13.6999998, y: 31.3199997, z: 20.8432102}
        inSlope: {x: 0, y: -4.13170815, z: 0}
        outSlope: {x: 0, y: -4.13170815, z: 0}
        tangentMode: -559038737
      - time: 45.8333321
        value: {x: 13.6999998, y: .59962976, z: 22.5366497}
        inSlope: {x: 0, y: -2.19127989, z: 0}
        outSlope: {x: 0, y: -2.19127989, z: 0}
        tangentMode: -559038737
      - time: 49.6666641
        value: {x: 7.30000019, y: -.839999974, z: 22.5366497}
        inSlope: {x: 0, y: -.375555724, z: 0}
        outSlope: {x: 0, y: -.375555724, z: 0}
        tangentMode: -559038737
      m_PreInfinity: 2
      m_PostInfinity: 2
    path: 
  m_ScaleCurves: []
  m_FloatCurves: []
  m_SampleRate: 60
  m_WrapMode: 2
  m_Bounds:
    m_Center: {x: 0, y: 0, z: 0}
    m_Extent: {x: 0, y: 0, z: 0}
  m_MuscleClipInfo:
    m_StartTime: 0
    m_StopTime: 1
    m_OrientationOffsetY: 0
    m_Level: 0
    m_CycleOffset: 0
    m_LoopBlend: 0
    m_LoopBlendOrientation: 0
    m_LoopBlendPositionY: 0
    m_LoopBlendPositionXZ: 0
    m_KeepOriginalOrientation: 0
    m_KeepOriginalPositionY: 1
    m_KeepOriginalPositionXZ: 0
    m_HeightFromFeet: 0
    m_Mirror: 0
    m_KeepAdditionalBonesAnimation: 1
  m_EditorCurves:
  - curve:
      serializedVersion: 2
      m_Curve:
      - time: 15.166666
        value: 7.30000019
        inSlope: 0
        outSlope: 0
        tangentMode: 0
      - time: 19
        value: 7.30000019
        inSlope: 0
        outSlope: 0
        tangentMode: 0
      - time: 22.833334
        value: 5.30000019
        inSlope: 0
        outSlope: 0
        tangentMode: 0
      - time: 26.6666679
        value: 5.30000019
        inSlope: 0
        outSlope: 0
        tangentMode: 0
      - time: 30.5000019
        value: 5.30000019
        inSlope: 0
        outSlope: 0
        tangentMode: 0
      - time: 34.3333321
        value: 13.6999998
        inSlope: 0
        outSlope: 0
        tangentMode: 0
      - time: 38.1666641
        value: 13.6999998
        inSlope: 0
        outSlope: 0
        tangentMode: 0
      - time: 45.8333321
        value: 13.6999998
        inSlope: 0
        outSlope: 0
        tangentMode: 0
      - time: 49.6666641
        value: 7.30000019
        inSlope: 0
        outSlope: 0
        tangentMode: 0
      m_PreInfinity: 2
      m_PostInfinity: 2
    attribute: m_LocalPosition.x
    path: 
    classID: 4
    script: {fileID: 0}
  - curve:
      serializedVersion: 2
      m_Curve:
      - time: 15.166666
        value: -.839999974
        inSlope: 0
        outSlope: 0
        tangentMode: 0
      - time: 22.833334
        value: 35.665844
        inSlope: 3.942168
        outSlope: 3.942168
        tangentMode: 10
      - time: 26.6666679
        value: 47.6362152
        inSlope: 0
        outSlope: 0
        tangentMode: 0
      - time: 30.5000019
        value: 48.7935791
        inSlope: 0
        outSlope: 0
        tangentMode: 0
      - time: 34.3333359
        value: 47.6362228
        inSlope: 0
        outSlope: 0
        tangentMode: 0
      - time: 38.1666641
        value: 31.3199997
        inSlope: -4.13170815
        outSlope: -4.13170815
        tangentMode: 10
      - time: 45.8333321
        value: .59962976
        inSlope: -2.19127989
        outSlope: -2.19127989
        tangentMode: 10
      - time: 49.6666641
        value: -.839999974
        inSlope: -.375555724
        outSlope: -.375555724
        tangentMode: 10
      m_PreInfinity: 2
      m_PostInfinity: 2
    attribute: m_LocalPosition.y
    path: 
    classID: 4
    script: {fileID: 0}
  - curve:
      serializedVersion: 2
      m_Curve:
      - time: 15.166666
        value: 22.5366478
        inSlope: 0
        outSlope: 0
        tangentMode: 10
      - time: 19
        value: 22.5366478
        inSlope: 0
        outSlope: 0
        tangentMode: 0
      - time: 22.833334
        value: 23.3314571
        inSlope: .0858306885
        outSlope: .0858306885
        tangentMode: 0
      - time: 26.6666679
        value: 23.9483089
        inSlope: 0
        outSlope: 0
        tangentMode: 0
      - time: 30.5000019
        value: 21.4233685
        inSlope: 0
        outSlope: 0
        tangentMode: 0
      - time: 34.3333359
        value: 20.8438663
        inSlope: 0
        outSlope: 0
        tangentMode: 0
      - time: 38.1666641
        value: 20.8432102
        inSlope: 0
        outSlope: 0
        tangentMode: 0
      - time: 45.8333321
        value: 22.5366497
        inSlope: 0
        outSlope: 0
        tangentMode: 0
      m_PreInfinity: 2
      m_PostInfinity: 2
    attribute: m_LocalPosition.z
    path: 
    classID: 4
    script: {fileID: 0}
  - curve:
      serializedVersion: 2
      m_Curve:
      - time: 15.166666
        value: 0
        inSlope: 0
        outSlope: 0
        tangentMode: 0
      - time: 15.9999866
        value: 0
        inSlope: 0
        outSlope: 0
        tangentMode: 0
      - time: 16.8333073
        value: 0
        inSlope: 0
        outSlope: 0
        tangentMode: 0
      - time: 17.6666279
        value: 0
        inSlope: 0
        outSlope: 0
        tangentMode: 0
      - time: 18.4999485
        value: 0
        inSlope: 0
        outSlope: 0
        tangentMode: 0
      - time: 19.3332691
        value: 0
        inSlope: 0
        outSlope: 0
        tangentMode: 0
      - time: 20.1665897
        value: 0
        inSlope: 0
        outSlope: 0
        tangentMode: 0
      - time: 20.9999104
        value: 0
        inSlope: 0
        outSlope: 0
        tangentMode: 0
      - time: 21.833231
        value: 0
        inSlope: 0
        outSlope: 0
        tangentMode: 0
      - time: 22.6665516
        value: 0
        inSlope: 0
        outSlope: 0
        tangentMode: 0
      - time: 23.4998722
        value: 0
        inSlope: 0
        outSlope: 0
        tangentMode: 0
      - time: 24.3331928
        value: 0
        inSlope: 0
        outSlope: 0
        tangentMode: 0
      - time: 25.1665134
        value: 0
        inSlope: 0
        outSlope: 0
        tangentMode: 0
      - time: 25.9998341
        value: 0
        inSlope: 0
        outSlope: 0
        tangentMode: 0
      - time: 26.7498226
        value: -.00218541757
        inSlope: -.0521614589
        outSlope: -.0521614589
        tangentMode: 0
      - time: 27.5831432
        value: -.224495783
        inSlope: -.435837001
        outSlope: -.435837001
        tangentMode: 0
      - time: 28.4164639
        value: -.631191611
        inSlope: -.473109543
        outSlope: -.473109543
        tangentMode: 0
      - time: 29.2164516
        value: -.916961074
        inSlope: -.218481779
        outSlope: -.218481779
        tangentMode: 0
      - time: 30.0497723
        value: -.998205543
        inSlope: -.0152780954
        outSlope: -.0152780954
        tangentMode: 0
      - time: 30.8830929
        value: -.999935329
        inSlope: .000665197964
        outSlope: .000665197964
        tangentMode: 0
      - time: 31.7164135
        value: -.994378746
        inSlope: .0173774026
        outSlope: .0173774026
        tangentMode: 0
      - time: 32.549736
        value: -.961934209
        inSlope: .0658081025
        outSlope: .0658081025
        tangentMode: 0
      - time: 33.3830566
        value: -.877902508
        inSlope: .138117999
        outSlope: .138117999
        tangentMode: 0
      - time: 34.2163773
        value: -.73205328
        inSlope: .209170789
        outSlope: .209170789
        tangentMode: 0
      - time: 35.0496979
        value: -.537779331
        inSlope: .250053644
        outSlope: .250053644
        tangentMode: 0
      - time: 35.8830185
        value: -.328843862
        inSlope: .242799938
        outSlope: .242799938
        tangentMode: 0
      - time: 36.7163391
        value: -.146838725
        inSlope: .186514273
        outSlope: .186514273
        tangentMode: 0
      - time: 37.5496597
        value: -.0288800951
        inSlope: .0909321308
        outSlope: .0909321308
        tangentMode: 0
      - time: 38.1666641
        value: 0
        inSlope: .00137777836
        outSlope: .00137777836
        tangentMode: 0
      m_PreInfinity: 2
      m_PostInfinity: 2
    attribute: m_LocalRotation.x
    path: 
    classID: 4
    script: {fileID: 0}
  - curve:
      serializedVersion: 2
      m_Curve:
      - time: 15.166666
        value: 0
        inSlope: 0
        outSlope: 0
        tangentMode: 0
      - time: 15.9999866
        value: 0
        inSlope: 0
        outSlope: 0
        tangentMode: 0
      - time: 16.8333073
        value: 0
        inSlope: 0
        outSlope: 0
        tangentMode: 0
      - time: 17.6666279
        value: 0
        inSlope: 0
        outSlope: 0
        tangentMode: 0
      - time: 18.4999485
        value: 0
        inSlope: 0
        outSlope: 0
        tangentMode: 0
      - time: 19.3332691
        value: 0
        inSlope: 0
        outSlope: 0
        tangentMode: 0
      - time: 20.1665897
        value: 0
        inSlope: 0
        outSlope: 0
        tangentMode: 0
      - time: 20.9999104
        value: 0
        inSlope: 0
        outSlope: 0
        tangentMode: 0
      - time: 21.833231
        value: 0
        inSlope: 0
        outSlope: 0
        tangentMode: 0
      - time: 22.6665516
        value: 0
        inSlope: 0
        outSlope: 0
        tangentMode: 0
      - time: 23.4998722
        value: 0
        inSlope: 0
        outSlope: 0
        tangentMode: 0
      - time: 24.3331928
        value: 0
        inSlope: 0
        outSlope: 0
        tangentMode: 0
      - time: 25.1665134
        value: 0
        inSlope: 0
        outSlope: 0
        tangentMode: 0
      - time: 25.9998341
        value: 0
        inSlope: 0
        outSlope: 0
        tangentMode: 0
      - time: 26.7498226
        value: 0
        inSlope: 0
        outSlope: 0
        tangentMode: 0
      - time: 27.5831432
        value: 0
        inSlope: 0
        outSlope: 0
        tangentMode: 0
      - time: 28.4164639
        value: 0
        inSlope: 0
        outSlope: 0
        tangentMode: 0
      - time: 29.2164516
        value: 0
        inSlope: 0
        outSlope: 0
        tangentMode: 0
      - time: 30.0497723
        value: 0
        inSlope: 0
        outSlope: 0
        tangentMode: 0
      - time: 30.8830929
        value: 0
        inSlope: 0
        outSlope: 0
        tangentMode: 0
      - time: 31.7164135
        value: 0
        inSlope: 0
        outSlope: 0
        tangentMode: 0
      - time: 32.549736
        value: 0
        inSlope: 0
        outSlope: 0
        tangentMode: 0
      - time: 33.3830566
        value: 0
        inSlope: 0
        outSlope: 0
        tangentMode: 0
      - time: 34.2163773
        value: 0
        inSlope: 0
        outSlope: 0
        tangentMode: 0
      - time: 35.0496979
        value: 0
        inSlope: 0
        outSlope: 0
        tangentMode: 0
      - time: 35.8830185
        value: 0
        inSlope: 0
        outSlope: 0
        tangentMode: 0
      - time: 36.7163391
        value: 0
        inSlope: 0
        outSlope: 0
        tangentMode: 0
      - time: 37.5496597
        value: 0
        inSlope: 0
        outSlope: 0
        tangentMode: 0
      - time: 38.1666641
        value: 0
        inSlope: 0
        outSlope: 0
        tangentMode: 0
      m_PreInfinity: 2
      m_PostInfinity: 2
    attribute: m_LocalRotation.y
    path: 
    classID: 4
    script: {fileID: 0}
  - curve:
      serializedVersion: 2
      m_Curve:
      - time: 15.166666
        value: 0
        inSlope: 0
        outSlope: 0
        tangentMode: 0
      - time: 15.9999866
        value: 0
        inSlope: 0
        outSlope: 0
        tangentMode: 0
      - time: 16.8333073
        value: 0
        inSlope: 0
        outSlope: 0
        tangentMode: 0
      - time: 17.6666279
        value: 0
        inSlope: 0
        outSlope: 0
        tangentMode: 0
      - time: 18.4999485
        value: 0
        inSlope: 0
        outSlope: 0
        tangentMode: 0
      - time: 19.3332691
        value: 0
        inSlope: 0
        outSlope: 0
        tangentMode: 0
      - time: 20.1665897
        value: 0
        inSlope: 0
        outSlope: 0
        tangentMode: 0
      - time: 20.9999104
        value: 0
        inSlope: 0
        outSlope: 0
        tangentMode: 0
      - time: 21.833231
        value: 0
        inSlope: 0
        outSlope: 0
        tangentMode: 0
      - time: 22.6665516
        value: 0
        inSlope: 0
        outSlope: 0
        tangentMode: 0
      - time: 23.4998722
        value: 0
        inSlope: 0
        outSlope: 0
        tangentMode: 0
      - time: 24.3331928
        value: 0
        inSlope: 0
        outSlope: 0
        tangentMode: 0
      - time: 25.1665134
        value: 0
        inSlope: 0
        outSlope: 0
        tangentMode: 0
      - time: 25.9998341
        value: 0
        inSlope: 0
        outSlope: 0
        tangentMode: 0
      - time: 26.7498226
        value: 0
        inSlope: 0
        outSlope: 0
        tangentMode: 0
      - time: 27.5831432
        value: 0
        inSlope: 0
        outSlope: 0
        tangentMode: 0
      - time: 28.4164639
        value: 0
        inSlope: 0
        outSlope: 0
        tangentMode: 0
      - time: 29.2164516
        value: 0
        inSlope: 0
        outSlope: 0
        tangentMode: 0
      - time: 30.0497723
        value: 0
        inSlope: 0
        outSlope: 0
        tangentMode: 0
      - time: 30.8830929
        value: 0
        inSlope: 0
        outSlope: 0
        tangentMode: 0
      - time: 31.7164135
        value: 0
        inSlope: 0
        outSlope: 0
        tangentMode: 0
      - time: 32.549736
        value: 0
        inSlope: 0
        outSlope: 0
        tangentMode: 0
      - time: 33.3830566
        value: 0
        inSlope: 0
        outSlope: 0
        tangentMode: 0
      - time: 34.2163773
        value: 0
        inSlope: 0
        outSlope: 0
        tangentMode: 0
      - time: 35.0496979
        value: 0
        inSlope: 0
        outSlope: 0
        tangentMode: 0
      - time: 35.8830185
        value: 0
        inSlope: 0
        outSlope: 0
        tangentMode: 0
      - time: 36.7163391
        value: 0
        inSlope: 0
        outSlope: 0
        tangentMode: 0
      - time: 37.5496597
        value: 0
        inSlope: 0
        outSlope: 0
        tangentMode: 0
      - time: 38.1666641
        value: 0
        inSlope: 0
        outSlope: 0
        tangentMode: 0
      m_PreInfinity: 2
      m_PostInfinity: 2
    attribute: m_LocalRotation.z
    path: 
    classID: 4
    script: {fileID: 0}
  - curve:
      serializedVersion: 2
      m_Curve:
      - time: 15.166666
        value: 1
        inSlope: 0
        outSlope: 0
        tangentMode: 0
      - time: 15.9999866
        value: 1
        inSlope: 0
        outSlope: 0
        tangentMode: 0
      - time: 16.8333073
        value: 1
        inSlope: 0
        outSlope: 0
        tangentMode: 0
      - time: 17.6666279
        value: 1
        inSlope: 0
        outSlope: 0
        tangentMode: 0
      - time: 18.4999485
        value: 1
        inSlope: 0
        outSlope: 0
        tangentMode: 0
      - time: 19.3332691
        value: 1
        inSlope: 0
        outSlope: 0
        tangentMode: 0
      - time: 20.1665897
        value: 1
        inSlope: 0
        outSlope: 0
        tangentMode: 0
      - time: 20.9999104
        value: 1
        inSlope: 0
        outSlope: 0
        tangentMode: 0
      - time: 21.833231
        value: 1
        inSlope: 0
        outSlope: 0
        tangentMode: 0
      - time: 22.6665516
        value: 1
        inSlope: 0
        outSlope: 0
        tangentMode: 0
      - time: 23.4998722
        value: 1
        inSlope: 0
        outSlope: 0
        tangentMode: 0
      - time: 24.3331928
        value: 1
        inSlope: 0
        outSlope: 0
        tangentMode: 0
      - time: 25.1665134
        value: 1
        inSlope: 0
        outSlope: 0
        tangentMode: 0
      - time: 25.9998341
        value: 1
        inSlope: 0
        outSlope: 0
        tangentMode: 0
      - time: 26.7498226
        value: .999997616
        inSlope: -.000119807162
        outSlope: -.000119807162
        tangentMode: 0
      - time: 27.5831432
        value: .974475086
        inSlope: -.100427017
        outSlope: -.100427017
        tangentMode: 0
      - time: 28.4164639
        value: .775626957
        inSlope: -.385013759
        outSlope: -.385013759
        tangentMode: 0
      - time: 29.2164516
        value: .398976684
        inSlope: -.502093077
        outSlope: -.502093077
        tangentMode: 0
      - time: 30.0497723
        value: .0598802529
        inSlope: -.254383147
        outSlope: -.254383147
        tangentMode: 0
      - time: 30.8830929
        value: .0113738272
        inSlope: .0583548062
        outSlope: .0583548062
        tangentMode: 0
      - time: 31.7164135
        value: .105881765
        inSlope: .163177133
        outSlope: .163177133
        tangentMode: 0
      - time: 32.549736
        value: .273281038
        inSlope: .231627494
        outSlope: .231627494
        tangentMode: 0
      - time: 33.3830566
        value: .478839427
        inSlope: .253222287
        outSlope: .253222287
        tangentMode: 0
      - time: 34.2163773
        value: .681247413
        inSlope: .224768966
        outSlope: .224768966
        tangentMode: 0
      - time: 35.0496979
        value: .843085647
        inSlope: .159502685
        outSlope: .159502685
        tangentMode: 0
      - time: 35.8830185
        value: .944384277
        inSlope: .0845481008
        outSlope: .0845481008
        tangentMode: 0
      - time: 36.7163391
        value: .989160419
        inSlope: .0276897587
        outSlope: .0276897587
        tangentMode: 0
      - time: 37.5496597
        value: .999582887
        inSlope: .00262860488
        outSlope: .00262860488
        tangentMode: 0
      - time: 38.1666641
        value: 1
        inSlope: 0
        outSlope: 0
        tangentMode: 0
      m_PreInfinity: 2
      m_PostInfinity: 2
    attribute: m_LocalRotation.w
    path: 
    classID: 4
    script: {fileID: 0}
  m_EulerEditorCurves:
  - curve:
      serializedVersion: 2
      m_Curve:
      - time: 15.166666
        value: 0
        inSlope: 0
        outSlope: 0
        tangentMode: 0
      - time: 26.6666679
        value: 0
        inSlope: 0
        outSlope: 0
        tangentMode: 0
      - time: 30.5000019
        value: -180
        inSlope: 0
        outSlope: 0
        tangentMode: 0
      - time: 38.1666641
        value: 0
        inSlope: 0
        outSlope: 0
        tangentMode: 0
      m_PreInfinity: 2
      m_PostInfinity: 2
    attribute: localEulerAnglesBaked.x
    path: 
    classID: 4
    script: {fileID: 0}
  - curve:
      serializedVersion: 2
      m_Curve:
      - time: 15.166666
        value: 0
        inSlope: 0
        outSlope: 0
        tangentMode: 0
      - time: 26.6666679
        value: 0
        inSlope: 0
        outSlope: 0
        tangentMode: 0
      - time: 38.1666641
        value: 0
        inSlope: 0
        outSlope: 0
        tangentMode: 0
      m_PreInfinity: 2
      m_PostInfinity: 2
    attribute: localEulerAnglesBaked.y
    path: 
    classID: 4
    script: {fileID: 0}
  - curve:
      serializedVersion: 2
      m_Curve:
      - time: 15.166666
        value: 0
        inSlope: 0
        outSlope: 0
        tangentMode: 0
      - time: 26.6666679
        value: 0
        inSlope: 0
        outSlope: 0
        tangentMode: 0
      - time: 38.1666641
        value: 0
        inSlope: 0
        outSlope: 0
        tangentMode: 0
      m_PreInfinity: 2
      m_PostInfinity: 2
    attribute: localEulerAnglesBaked.z
    path: 
    classID: 4
    script: {fileID: 0}
  m_Events: []
