%YAML 1.1
%TAG !u! tag:unity3d.com,2011:
--- !u!74 &7400000
AnimationClip:
  m_ObjectHideFlags: 0
  m_PrefabParentObject: {fileID: 0}
  m_PrefabInternal: {fileID: 0}
  m_Name: animation_carryCup04
  serializedVersion: 3
  m_AnimationType: 1
  m_Compressed: 0
  m_RotationCurves:
  - curve:
      serializedVersion: 2
      m_Curve:
      - time: 11.333333
        value: {x: 0, y: 0, z: 0, w: 1}
        inSlope: {x: 0, y: 0, z: 0, w: 0}
        outSlope: {x: 0, y: 0, z: 0, w: 0}
        tangentMode: -559038737
      - time: 12.1666536
        value: {x: 0, y: 0, z: 0, w: 1}
        inSlope: {x: 0, y: 0, z: 0, w: 0}
        outSlope: {x: 0, y: 0, z: 0, w: 0}
        tangentMode: -559038737
      - time: 12.9999743
        value: {x: 0, y: 0, z: 0, w: 1}
        inSlope: {x: 0, y: 0, z: 0, w: 0}
        outSlope: {x: 0, y: 0, z: 0, w: 0}
        tangentMode: -559038737
      - time: 13.8332949
        value: {x: 0, y: 0, z: 0, w: 1}
        inSlope: {x: 0, y: 0, z: 0, w: 0}
        outSlope: {x: 0, y: 0, z: 0, w: 0}
        tangentMode: -559038737
      - time: 14.6666155
        value: {x: 0, y: 0, z: 0, w: 1}
        inSlope: {x: 0, y: 0, z: 0, w: 0}
        outSlope: {x: 0, y: 0, z: 0, w: 0}
        tangentMode: -559038737
      - time: 15.4999361
        value: {x: 0, y: 0, z: 0, w: 1}
        inSlope: {x: 0, y: 0, z: 0, w: 0}
        outSlope: {x: 0, y: 0, z: 0, w: 0}
        tangentMode: -559038737
      - time: 16.3332577
        value: {x: 0, y: 0, z: 0, w: 1}
        inSlope: {x: 0, y: 0, z: 0, w: 0}
        outSlope: {x: 0, y: 0, z: 0, w: 0}
        tangentMode: -559038737
      - time: 17.1665783
        value: {x: 0, y: 0, z: 0, w: 1}
        inSlope: {x: 0, y: 0, z: 0, w: 0}
        outSlope: {x: 0, y: 0, z: 0, w: 0}
        tangentMode: -559038737
      - time: 17.9998989
        value: {x: 0, y: 0, z: 0, w: 1}
        inSlope: {x: 0, y: 0, z: 0, w: 0}
        outSlope: {x: 0, y: 0, z: 0, w: 0}
        tangentMode: -559038737
      - time: 18.8332195
        value: {x: 0, y: 0, z: 0, w: 1}
        inSlope: {x: 0, y: 0, z: 0, w: 0}
        outSlope: {x: 0, y: 0, z: 0, w: 0}
        tangentMode: -559038737
      - time: 19.6665401
        value: {x: 0, y: 0, z: 0, w: 1}
        inSlope: {x: 0, y: 0, z: 0, w: 0}
        outSlope: {x: 0, y: 0, z: 0, w: 0}
        tangentMode: -559038737
      - time: 20.4998608
        value: {x: 0, y: 0, z: 0, w: 1}
        inSlope: {x: 0, y: 0, z: 0, w: 0}
        outSlope: {x: 0, y: 0, z: 0, w: 0}
        tangentMode: -559038737
      - time: 21.3331814
        value: {x: 0, y: 0, z: 0, w: 1}
        inSlope: {x: 0, y: 0, z: 0, w: 0}
        outSlope: {x: 0, y: 0, z: 0, w: 0}
        tangentMode: -559038737
      - time: 22.166502
        value: {x: 0, y: 0, z: 0, w: 1}
        inSlope: {x: 0, y: 0, z: 0, w: 0}
        outSlope: {x: 0, y: 0, z: 0, w: 0}
        tangentMode: -559038737
      - time: 22.9164906
        value: {x: -.00218551699, y: 0, z: 0, w: .999997616}
        inSlope: {x: -.0521626398, y: 0, z: 0, w: -.000119807162}
        outSlope: {x: -.0521626398, y: 0, z: 0, w: -.000119807162}
        tangentMode: -559038737
      - time: 23.7498112
        value: {x: -.224496618, y: 0, z: 0, w: .974474847}
        inSlope: {x: -.435837895, y: 0, z: 0, w: -.100427017}
        outSlope: {x: -.435837895, y: 0, z: 0, w: -.100427017}
        tangentMode: -559038737
      - time: 24.5831318
        value: {x: -.631192446, y: 0, z: 0, w: .775626242}
        inSlope: {x: -.473109543, y: 0, z: 0, w: -.385015547}
        outSlope: {x: -.473109543, y: 0, z: 0, w: -.385015547}
        tangentMode: -559038737
      - time: 25.3831196
        value: {x: -.916961491, y: 0, z: 0, w: .3989757}
        inSlope: {x: -.218483567, y: 0, z: 0, w: -.502095699}
        outSlope: {x: -.218483567, y: 0, z: 0, w: -.502095699}
        tangentMode: -559038737
      - time: 26.2164402
        value: {x: -.998205602, y: 0, z: 0, w: .0598796569}
        inSlope: {x: -.0152763072, y: 0, z: 0, w: -.254376203}
        outSlope: {x: -.0152763072, y: 0, z: 0, w: -.254376203}
        tangentMode: -559038737
      - time: 27.0497608
        value: {x: -.999935329, y: 0, z: 0, w: .0113739464}
        inSlope: {x: .000665197964, y: 0, z: 0, w: .0583548062}
        outSlope: {x: .000665197964, y: 0, z: 0, w: .0583548062}
        tangentMode: -559038737
      - time: 27.8830814
        value: {x: -.994378686, y: 0, z: 0, w: .105882235}
        inSlope: {x: .0173774026, y: 0, z: 0, w: .163173556}
        outSlope: {x: .0173774026, y: 0, z: 0, w: .163173556}
        tangentMode: -559038737
      - time: 28.7164021
        value: {x: -.961934268, y: 0, z: 0, w: .273280919}
        inSlope: {x: .0658063143, y: 0, z: 0, w: .2316266}
        outSlope: {x: .0658063143, y: 0, z: 0, w: .2316266}
        tangentMode: -559038737
      - time: 29.5497227
        value: {x: -.877902567, y: 0, z: 0, w: .478839338}
        inSlope: {x: .138117999, y: 0, z: 0, w: .253221393}
        outSlope: {x: .138117999, y: 0, z: 0, w: .253221393}
        tangentMode: -559038737
      - time: 30.3830433
        value: {x: -.732053399, y: 0, z: 0, w: .681247234}
        inSlope: {x: .209172577, y: 0, z: 0, w: .224770755}
        outSlope: {x: .209172577, y: 0, z: 0, w: .224770755}
        tangentMode: -559038737
      - time: 31.2163639
        value: {x: -.53777945, y: 0, z: 0, w: .843085587}
        inSlope: {x: .250051856, y: 0, z: 0, w: .159502685}
        outSlope: {x: .250051856, y: 0, z: 0, w: .159502685}
        tangentMode: -559038737
      - time: 32.0496864
        value: {x: -.328843534, y: 0, z: 0, w: .944384396}
        inSlope: {x: .242799938, y: 0, z: 0, w: .0845481008}
        outSlope: {x: .242799938, y: 0, z: 0, w: .0845481008}
        tangentMode: -559038737
      - time: 32.883007
        value: {x: -.146838412, y: 0, z: 0, w: .989160478}
        inSlope: {x: .18651472, y: 0, z: 0, w: .0276897587}
        outSlope: {x: .18651472, y: 0, z: 0, w: .0276897587}
        tangentMode: -559038737
      - time: 33.7163277
        value: {x: -.0288797524, y: 0, z: 0, w: .999582887}
        inSlope: {x: .0909321904, y: 0, z: 0, w: .00262860488}
        outSlope: {x: .0909321904, y: 0, z: 0, w: .00262860488}
        tangentMode: -559038737
      - time: 34.3333321
        value: {x: 0, y: 0, z: 0, w: 1}
        inSlope: {x: .00135511672, y: 0, z: 0, w: 0}
        outSlope: {x: .00135511672, y: 0, z: 0, w: 0}
        tangentMode: -559038737
      m_PreInfinity: 2
      m_PostInfinity: 2
    path: 
  m_CompressedRotationCurves: []
  m_PositionCurves:
  - curve:
      serializedVersion: 2
      m_Curve:
      - time: 11.333333
        value: {x: 7.30000019, y: -.839999974, z: 22.5366478}
        inSlope: {x: 0, y: 0, z: 0}
        outSlope: {x: 0, y: 0, z: 0}
        tangentMode: -559038737
      - time: 15.166666
        value: {x: 7.30000019, y: 13.6350079, z: 22.5366478}
        inSlope: {x: 0, y: 6.15690517, z: 0}
        outSlope: {x: 0, y: 6.15690517, z: 0}
        tangentMode: -559038737
      - time: 19
        value: {x: 5.30000019, y: 35.665844, z: 23.3314571}
        inSlope: {x: 0, y: 3.94216824, z: .0858306885}
        outSlope: {x: 0, y: 3.94216824, z: .0858306885}
        tangentMode: -559038737
      - time: 22.833334
        value: {x: 5.30000019, y: 47.6362152, z: 23.9483089}
        inSlope: {x: 0, y: 0, z: 0}
        outSlope: {x: 0, y: 0, z: 0}
        tangentMode: -559038737
      - time: 26.6666679
        value: {x: 5.30000019, y: 48.7935791, z: 21.4233685}
        inSlope: {x: 0, y: 0, z: 0}
        outSlope: {x: 0, y: 0, z: 0}
        tangentMode: -559038737
      - time: 30.5
        value: {x: 13.6999998, y: 47.6362228, z: 20.8438663}
        inSlope: {x: 0, y: 0, z: -9.1909078e-07}
        outSlope: {x: 0, y: 0, z: -9.1909078e-07}
        tangentMode: -559038737
      - time: 30.5000038
        value: {x: 13.6999998, y: 47.6362228, z: 20.8438663}
        inSlope: {x: 0, y: -1.71910306e-05, z: 0}
        outSlope: {x: 0, y: -1.71910306e-05, z: 0}
        tangentMode: 0
      - time: 34.3333321
        value: {x: 13.6999998, y: 31.3199997, z: 20.8432102}
        inSlope: {x: 0, y: -4.13170719, z: 0}
        outSlope: {x: 0, y: -4.13170719, z: 0}
        tangentMode: -559038737
      - time: 42
        value: {x: 13.6999998, y: .59962976, z: 22.5366497}
        inSlope: {x: 0, y: -2.19127989, z: 0}
        outSlope: {x: 0, y: -2.19127989, z: 0}
        tangentMode: -559038737
      - time: 45.8333321
        value: {x: 7.30000019, y: -.839999974, z: 22.5366497}
        inSlope: {x: 0, y: -.375555724, z: 0}
        outSlope: {x: 0, y: -.375555724, z: 0}
        tangentMode: -33686019
      m_PreInfinity: 2
      m_PostInfinity: 2
    path: 
  m_ScaleCurves: []
  m_FloatCurves: []
  m_SampleRate: 60
  m_WrapMode: 2
  m_Bounds:
    m_Center: {x: 0, y: 0, z: 0}
    m_Extent: {x: 0, y: 0, z: 0}
  m_MuscleClipInfo:
    m_StartTime: 0
    m_StopTime: 1
    m_OrientationOffsetY: 0
    m_Level: 0
    m_CycleOffset: 0
    m_LoopBlend: 0
    m_LoopBlendOrientation: 0
    m_LoopBlendPositionY: 0
    m_LoopBlendPositionXZ: 0
    m_KeepOriginalOrientation: 0
    m_KeepOriginalPositionY: 1
    m_KeepOriginalPositionXZ: 0
    m_HeightFromFeet: 0
    m_Mirror: 0
    m_KeepAdditionalBonesAnimation: 1
  m_EditorCurves:
  - curve:
      serializedVersion: 2
      m_Curve:
      - time: 11.333333
        value: 7.30000019
        inSlope: 0
        outSlope: 0
        tangentMode: 0
      - time: 15.166666
        value: 7.30000019
        inSlope: 0
        outSlope: 0
        tangentMode: 0
      - time: 19
        value: 5.30000019
        inSlope: 0
        outSlope: 0
        tangentMode: 0
      - time: 22.833334
        value: 5.30000019
        inSlope: 0
        outSlope: 0
        tangentMode: 0
      - time: 26.6666679
        value: 5.30000019
        inSlope: 0
        outSlope: 0
        tangentMode: 0
      - time: 30.5
        value: 13.6999998
        inSlope: 0
        outSlope: 0
        tangentMode: 0
      - time: 34.3333321
        value: 13.6999998
        inSlope: 0
        outSlope: 0
        tangentMode: 0
      - time: 42
        value: 13.6999998
        inSlope: 0
        outSlope: 0
        tangentMode: 0
      - time: 45.8333321
        value: 7.30000019
        inSlope: 0
        outSlope: 0
        tangentMode: 0
      m_PreInfinity: 2
      m_PostInfinity: 2
    attribute: m_LocalPosition.x
    path: 
    classID: 4
    script: {fileID: 0}
  - curve:
      serializedVersion: 2
      m_Curve:
      - time: 11.333333
        value: -.839999974
        inSlope: 0
        outSlope: 0
        tangentMode: 0
      - time: 19
        value: 35.665844
        inSlope: 3.94216824
        outSlope: 3.94216824
        tangentMode: 10
      - time: 22.833334
        value: 47.6362152
        inSlope: 0
        outSlope: 0
        tangentMode: 0
      - time: 26.6666679
        value: 48.7935791
        inSlope: 0
        outSlope: 0
        tangentMode: 0
      - time: 30.5000019
        value: 47.6362228
        inSlope: 0
        outSlope: 0
        tangentMode: 0
      - time: 34.3333321
        value: 31.3199997
        inSlope: -4.13170719
        outSlope: -4.13170719
        tangentMode: 10
      - time: 42
        value: .59962976
        inSlope: -2.19127989
        outSlope: -2.19127989
        tangentMode: 10
      - time: 45.8333321
        value: -.839999974
        inSlope: -.375555724
        outSlope: -.375555724
        tangentMode: 10
      m_PreInfinity: 2
      m_PostInfinity: 2
    attribute: m_LocalPosition.y
    path: 
    classID: 4
    script: {fileID: 0}
  - curve:
      serializedVersion: 2
      m_Curve:
      - time: 11.333333
        value: 22.5366478
        inSlope: 0
        outSlope: 0
        tangentMode: 10
      - time: 15.166667
        value: 22.5366478
        inSlope: 0
        outSlope: 0
        tangentMode: 0
      - time: 19
        value: 23.3314571
        inSlope: .0858306885
        outSlope: .0858306885
        tangentMode: 0
      - time: 22.833334
        value: 23.9483089
        inSlope: 0
        outSlope: 0
        tangentMode: 0
      - time: 26.6666679
        value: 21.4233685
        inSlope: 0
        outSlope: 0
        tangentMode: 0
      - time: 30.5000038
        value: 20.8438663
        inSlope: 0
        outSlope: 0
        tangentMode: 0
      - time: 34.3333321
        value: 20.8432102
        inSlope: 0
        outSlope: 0
        tangentMode: 0
      - time: 42
        value: 22.5366497
        inSlope: 0
        outSlope: 0
        tangentMode: 0
      m_PreInfinity: 2
      m_PostInfinity: 2
    attribute: m_LocalPosition.z
    path: 
    classID: 4
    script: {fileID: 0}
  - curve:
      serializedVersion: 2
      m_Curve:
      - time: 11.333333
        value: 0
        inSlope: 0
        outSlope: 0
        tangentMode: 0
      - time: 12.1666536
        value: 0
        inSlope: 0
        outSlope: 0
        tangentMode: 0
      - time: 12.9999743
        value: 0
        inSlope: 0
        outSlope: 0
        tangentMode: 0
      - time: 13.8332949
        value: 0
        inSlope: 0
        outSlope: 0
        tangentMode: 0
      - time: 14.6666155
        value: 0
        inSlope: 0
        outSlope: 0
        tangentMode: 0
      - time: 15.4999361
        value: 0
        inSlope: 0
        outSlope: 0
        tangentMode: 0
      - time: 16.3332577
        value: 0
        inSlope: 0
        outSlope: 0
        tangentMode: 0
      - time: 17.1665783
        value: 0
        inSlope: 0
        outSlope: 0
        tangentMode: 0
      - time: 17.9998989
        value: 0
        inSlope: 0
        outSlope: 0
        tangentMode: 0
      - time: 18.8332195
        value: 0
        inSlope: 0
        outSlope: 0
        tangentMode: 0
      - time: 19.6665401
        value: 0
        inSlope: 0
        outSlope: 0
        tangentMode: 0
      - time: 20.4998608
        value: 0
        inSlope: 0
        outSlope: 0
        tangentMode: 0
      - time: 21.3331814
        value: 0
        inSlope: 0
        outSlope: 0
        tangentMode: 0
      - time: 22.166502
        value: 0
        inSlope: 0
        outSlope: 0
        tangentMode: 0
      - time: 22.9164906
        value: -.00218551699
        inSlope: -.0521626398
        outSlope: -.0521626398
        tangentMode: 0
      - time: 23.7498112
        value: -.224496618
        inSlope: -.435837895
        outSlope: -.435837895
        tangentMode: 0
      - time: 24.5831318
        value: -.631192446
        inSlope: -.473109543
        outSlope: -.473109543
        tangentMode: 0
      - time: 25.3831196
        value: -.916961491
        inSlope: -.218483567
        outSlope: -.218483567
        tangentMode: 0
      - time: 26.2164402
        value: -.998205602
        inSlope: -.0152763072
        outSlope: -.0152763072
        tangentMode: 0
      - time: 27.0497608
        value: -.999935329
        inSlope: .000665197964
        outSlope: .000665197964
        tangentMode: 0
      - time: 27.8830814
        value: -.994378686
        inSlope: .0173774026
        outSlope: .0173774026
        tangentMode: 0
      - time: 28.7164021
        value: -.961934268
        inSlope: .0658063143
        outSlope: .0658063143
        tangentMode: 0
      - time: 29.5497227
        value: -.877902567
        inSlope: .138117999
        outSlope: .138117999
        tangentMode: 0
      - time: 30.3830433
        value: -.732053399
        inSlope: .209172577
        outSlope: .209172577
        tangentMode: 0
      - time: 31.2163639
        value: -.53777945
        inSlope: .250051856
        outSlope: .250051856
        tangentMode: 0
      - time: 32.0496864
        value: -.328843534
        inSlope: .242799938
        outSlope: .242799938
        tangentMode: 0
      - time: 32.883007
        value: -.146838412
        inSlope: .18651472
        outSlope: .18651472
        tangentMode: 0
      - time: 33.7163277
        value: -.0288797524
        inSlope: .0909321904
        outSlope: .0909321904
        tangentMode: 0
      - time: 34.3333321
        value: 0
        inSlope: .00135511672
        outSlope: .00135511672
        tangentMode: 0
      m_PreInfinity: 2
      m_PostInfinity: 2
    attribute: m_LocalRotation.x
    path: 
    classID: 4
    script: {fileID: 0}
  - curve:
      serializedVersion: 2
      m_Curve:
      - time: 11.333333
        value: 0
        inSlope: 0
        outSlope: 0
        tangentMode: 0
      - time: 12.1666536
        value: 0
        inSlope: 0
        outSlope: 0
        tangentMode: 0
      - time: 12.9999743
        value: 0
        inSlope: 0
        outSlope: 0
        tangentMode: 0
      - time: 13.8332949
        value: 0
        inSlope: 0
        outSlope: 0
        tangentMode: 0
      - time: 14.6666155
        value: 0
        inSlope: 0
        outSlope: 0
        tangentMode: 0
      - time: 15.4999361
        value: 0
        inSlope: 0
        outSlope: 0
        tangentMode: 0
      - time: 16.3332577
        value: 0
        inSlope: 0
        outSlope: 0
        tangentMode: 0
      - time: 17.1665783
        value: 0
        inSlope: 0
        outSlope: 0
        tangentMode: 0
      - time: 17.9998989
        value: 0
        inSlope: 0
        outSlope: 0
        tangentMode: 0
      - time: 18.8332195
        value: 0
        inSlope: 0
        outSlope: 0
        tangentMode: 0
      - time: 19.6665401
        value: 0
        inSlope: 0
        outSlope: 0
        tangentMode: 0
      - time: 20.4998608
        value: 0
        inSlope: 0
        outSlope: 0
        tangentMode: 0
      - time: 21.3331814
        value: 0
        inSlope: 0
        outSlope: 0
        tangentMode: 0
      - time: 22.166502
        value: 0
        inSlope: 0
        outSlope: 0
        tangentMode: 0
      - time: 22.9164906
        value: 0
        inSlope: 0
        outSlope: 0
        tangentMode: 0
      - time: 23.7498112
        value: 0
        inSlope: 0
        outSlope: 0
        tangentMode: 0
      - time: 24.5831318
        value: 0
        inSlope: 0
        outSlope: 0
        tangentMode: 0
      - time: 25.3831196
        value: 0
        inSlope: 0
        outSlope: 0
        tangentMode: 0
      - time: 26.2164402
        value: 0
        inSlope: 0
        outSlope: 0
        tangentMode: 0
      - time: 27.0497608
        value: 0
        inSlope: 0
        outSlope: 0
        tangentMode: 0
      - time: 27.8830814
        value: 0
        inSlope: 0
        outSlope: 0
        tangentMode: 0
      - time: 28.7164021
        value: 0
        inSlope: 0
        outSlope: 0
        tangentMode: 0
      - time: 29.5497227
        value: 0
        inSlope: 0
        outSlope: 0
        tangentMode: 0
      - time: 30.3830433
        value: 0
        inSlope: 0
        outSlope: 0
        tangentMode: 0
      - time: 31.2163639
        value: 0
        inSlope: 0
        outSlope: 0
        tangentMode: 0
      - time: 32.0496864
        value: 0
        inSlope: 0
        outSlope: 0
        tangentMode: 0
      - time: 32.883007
        value: 0
        inSlope: 0
        outSlope: 0
        tangentMode: 0
      - time: 33.7163277
        value: 0
        inSlope: 0
        outSlope: 0
        tangentMode: 0
      - time: 34.3333321
        value: 0
        inSlope: 0
        outSlope: 0
        tangentMode: 0
      m_PreInfinity: 2
      m_PostInfinity: 2
    attribute: m_LocalRotation.y
    path: 
    classID: 4
    script: {fileID: 0}
  - curve:
      serializedVersion: 2
      m_Curve:
      - time: 11.333333
        value: 0
        inSlope: 0
        outSlope: 0
        tangentMode: 0
      - time: 12.1666536
        value: 0
        inSlope: 0
        outSlope: 0
        tangentMode: 0
      - time: 12.9999743
        value: 0
        inSlope: 0
        outSlope: 0
        tangentMode: 0
      - time: 13.8332949
        value: 0
        inSlope: 0
        outSlope: 0
        tangentMode: 0
      - time: 14.6666155
        value: 0
        inSlope: 0
        outSlope: 0
        tangentMode: 0
      - time: 15.4999361
        value: 0
        inSlope: 0
        outSlope: 0
        tangentMode: 0
      - time: 16.3332577
        value: 0
        inSlope: 0
        outSlope: 0
        tangentMode: 0
      - time: 17.1665783
        value: 0
        inSlope: 0
        outSlope: 0
        tangentMode: 0
      - time: 17.9998989
        value: 0
        inSlope: 0
        outSlope: 0
        tangentMode: 0
      - time: 18.8332195
        value: 0
        inSlope: 0
        outSlope: 0
        tangentMode: 0
      - time: 19.6665401
        value: 0
        inSlope: 0
        outSlope: 0
        tangentMode: 0
      - time: 20.4998608
        value: 0
        inSlope: 0
        outSlope: 0
        tangentMode: 0
      - time: 21.3331814
        value: 0
        inSlope: 0
        outSlope: 0
        tangentMode: 0
      - time: 22.166502
        value: 0
        inSlope: 0
        outSlope: 0
        tangentMode: 0
      - time: 22.9164906
        value: 0
        inSlope: 0
        outSlope: 0
        tangentMode: 0
      - time: 23.7498112
        value: 0
        inSlope: 0
        outSlope: 0
        tangentMode: 0
      - time: 24.5831318
        value: 0
        inSlope: 0
        outSlope: 0
        tangentMode: 0
      - time: 25.3831196
        value: 0
        inSlope: 0
        outSlope: 0
        tangentMode: 0
      - time: 26.2164402
        value: 0
        inSlope: 0
        outSlope: 0
        tangentMode: 0
      - time: 27.0497608
        value: 0
        inSlope: 0
        outSlope: 0
        tangentMode: 0
      - time: 27.8830814
        value: 0
        inSlope: 0
        outSlope: 0
        tangentMode: 0
      - time: 28.7164021
        value: 0
        inSlope: 0
        outSlope: 0
        tangentMode: 0
      - time: 29.5497227
        value: 0
        inSlope: 0
        outSlope: 0
        tangentMode: 0
      - time: 30.3830433
        value: 0
        inSlope: 0
        outSlope: 0
        tangentMode: 0
      - time: 31.2163639
        value: 0
        inSlope: 0
        outSlope: 0
        tangentMode: 0
      - time: 32.0496864
        value: 0
        inSlope: 0
        outSlope: 0
        tangentMode: 0
      - time: 32.883007
        value: 0
        inSlope: 0
        outSlope: 0
        tangentMode: 0
      - time: 33.7163277
        value: 0
        inSlope: 0
        outSlope: 0
        tangentMode: 0
      - time: 34.3333321
        value: 0
        inSlope: 0
        outSlope: 0
        tangentMode: 0
      m_PreInfinity: 2
      m_PostInfinity: 2
    attribute: m_LocalRotation.z
    path: 
    classID: 4
    script: {fileID: 0}
  - curve:
      serializedVersion: 2
      m_Curve:
      - time: 11.333333
        value: 1
        inSlope: 0
        outSlope: 0
        tangentMode: 0
      - time: 12.1666536
        value: 1
        inSlope: 0
        outSlope: 0
        tangentMode: 0
      - time: 12.9999743
        value: 1
        inSlope: 0
        outSlope: 0
        tangentMode: 0
      - time: 13.8332949
        value: 1
        inSlope: 0
        outSlope: 0
        tangentMode: 0
      - time: 14.6666155
        value: 1
        inSlope: 0
        outSlope: 0
        tangentMode: 0
      - time: 15.4999361
        value: 1
        inSlope: 0
        outSlope: 0
        tangentMode: 0
      - time: 16.3332577
        value: 1
        inSlope: 0
        outSlope: 0
        tangentMode: 0
      - time: 17.1665783
        value: 1
        inSlope: 0
        outSlope: 0
        tangentMode: 0
      - time: 17.9998989
        value: 1
        inSlope: 0
        outSlope: 0
        tangentMode: 0
      - time: 18.8332195
        value: 1
        inSlope: 0
        outSlope: 0
        tangentMode: 0
      - time: 19.6665401
        value: 1
        inSlope: 0
        outSlope: 0
        tangentMode: 0
      - time: 20.4998608
        value: 1
        inSlope: 0
        outSlope: 0
        tangentMode: 0
      - time: 21.3331814
        value: 1
        inSlope: 0
        outSlope: 0
        tangentMode: 0
      - time: 22.166502
        value: 1
        inSlope: 0
        outSlope: 0
        tangentMode: 0
      - time: 22.9164906
        value: .999997616
        inSlope: -.000119807162
        outSlope: -.000119807162
        tangentMode: 0
      - time: 23.7498112
        value: .974474847
        inSlope: -.100427017
        outSlope: -.100427017
        tangentMode: 0
      - time: 24.5831318
        value: .775626242
        inSlope: -.385015547
        outSlope: -.385015547
        tangentMode: 0
      - time: 25.3831196
        value: .3989757
        inSlope: -.502095699
        outSlope: -.502095699
        tangentMode: 0
      - time: 26.2164402
        value: .0598796569
        inSlope: -.254376203
        outSlope: -.254376203
        tangentMode: 0
      - time: 27.0497608
        value: .0113739464
        inSlope: .0583548062
        outSlope: .0583548062
        tangentMode: 0
      - time: 27.8830814
        value: .105882235
        inSlope: .163173556
        outSlope: .163173556
        tangentMode: 0
      - time: 28.7164021
        value: .273280919
        inSlope: .2316266
        outSlope: .2316266
        tangentMode: 0
      - time: 29.5497227
        value: .478839338
        inSlope: .253221393
        outSlope: .253221393
        tangentMode: 0
      - time: 30.3830433
        value: .681247234
        inSlope: .224770755
        outSlope: .224770755
        tangentMode: 0
      - time: 31.2163639
        value: .843085587
        inSlope: .159502685
        outSlope: .159502685
        tangentMode: 0
      - time: 32.0496864
        value: .944384396
        inSlope: .0845481008
        outSlope: .0845481008
        tangentMode: 0
      - time: 32.883007
        value: .989160478
        inSlope: .0276897587
        outSlope: .0276897587
        tangentMode: 0
      - time: 33.7163277
        value: .999582887
        inSlope: .00262860488
        outSlope: .00262860488
        tangentMode: 0
      - time: 34.3333321
        value: 1
        inSlope: 0
        outSlope: 0
        tangentMode: 0
      m_PreInfinity: 2
      m_PostInfinity: 2
    attribute: m_LocalRotation.w
    path: 
    classID: 4
    script: {fileID: 0}
  m_EulerEditorCurves:
  - curve:
      serializedVersion: 2
      m_Curve:
      - time: 11.333333
        value: 0
        inSlope: 0
        outSlope: 0
        tangentMode: 0
      - time: 22.833334
        value: 0
        inSlope: 0
        outSlope: 0
        tangentMode: 0
      - time: 26.6666679
        value: -180
        inSlope: 0
        outSlope: 0
        tangentMode: 0
      - time: 34.3333321
        value: 0
        inSlope: 0
        outSlope: 0
        tangentMode: 0
      m_PreInfinity: 2
      m_PostInfinity: 2
    attribute: localEulerAnglesBaked.x
    path: 
    classID: 4
    script: {fileID: 0}
  - curve:
      serializedVersion: 2
      m_Curve:
      - time: 11.333333
        value: 0
        inSlope: 0
        outSlope: 0
        tangentMode: 0
      - time: 22.833334
        value: 0
        inSlope: 0
        outSlope: 0
        tangentMode: 0
      - time: 34.3333321
        value: 0
        inSlope: 0
        outSlope: 0
        tangentMode: 0
      m_PreInfinity: 2
      m_PostInfinity: 2
    attribute: localEulerAnglesBaked.y
    path: 
    classID: 4
    script: {fileID: 0}
  - curve:
      serializedVersion: 2
      m_Curve:
      - time: 11.333333
        value: 0
        inSlope: 0
        outSlope: 0
        tangentMode: 0
      - time: 22.833334
        value: 0
        inSlope: 0
        outSlope: 0
        tangentMode: 0
      - time: 34.3333321
        value: 0
        inSlope: 0
        outSlope: 0
        tangentMode: 0
      m_PreInfinity: 2
      m_PostInfinity: 2
    attribute: localEulerAnglesBaked.z
    path: 
    classID: 4
    script: {fileID: 0}
  m_Events: []
